[
    {
        "name": "METALLIC ROUGE",
        "img": "https://i0.hdslb.com/bfs/new_dyn/50ef1255d5c40d991c1e6a994c465f75512995925.jpg"
    },
    {
        "name": "勇气爆发BangBravern",
        "img": "https://i0.hdslb.com/bfs/new_dyn/42ae6ad5b4da830630ddd58f8707db9c512995925.jpg"
    },
    {
        "name": "BUCCHIGIRI",
        "img": "https://i0.hdslb.com/bfs/new_dyn/baaa9e94e2793e53919169e025519252512995925.jpg"
    },
    {
        "name": "明治击剑1874",
        "img": "https://i0.hdslb.com/bfs/new_dyn/393b622b152233da90117f4dfdb398bb512995925.jpg"
    },
    {
        "name": "月刊妄想科学",
        "img": "https://i0.hdslb.com/bfs/new_dyn/5a1615960062019a27b345a0e2f627ed512995925.jpg"
    },
    {
        "name": "碰之道",
        "img": "https://i0.hdslb.com/bfs/new_dyn/0f00238cbaa6a1a29062036dc8e2a37c512995925.jpg"
    },
    {
        "name": "至高之牌 第2期",
        "img": "https://i0.hdslb.com/bfs/new_dyn/faac968688fe3742e2fb58caf5c00c56512995925.jpg"
    },
    {
        "name": "大欺诈师 第2期",
        "img": "https://i0.hdslb.com/bfs/new_dyn/0bc00c30d9413cb62b00db0f17e8b21d512995925.jpg"
    },
    {
        "name": "卡片战斗先导者 DivineZ",
        "img": "https://i0.hdslb.com/bfs/new_dyn/ca70755c0861fa9e7fd7e23db3db439b512995925.jpg"
    },
    {
        "name": "Wonderful光之美少女",
        "img": "https://i0.hdslb.com/bfs/new_dyn/2619870609c7f6730354051e50fd13dd512995925.jpg"
    },
    {
        "name": "王者天下 第5期",
        "img": "https://i0.hdslb.com/bfs/new_dyn/54797de1b678c5601f1e4bc833a4ffdd512995925.jpg"
    },
    {
        "name": "新 福星小子 第2期",
        "img": "https://i0.hdslb.com/bfs/new_dyn/c65275e7b3ff10a18b43374272594c28512995925.jpg"
    },
    {
        "name": "新 通灵王 第2期",
        "img": "https://i0.hdslb.com/bfs/new_dyn/ad6566253891796acb75a448b5018052512995925.jpg"
    },
    {
        "name": "青之驱魔师 第3期",
        "img": "https://i0.hdslb.com/bfs/new_dyn/2518c83ad2bc50376022b7f641368f7e512995925.jpg"
    },
    {
        "name": "物理魔法使马修 第2期",
        "img": "https://i0.hdslb.com/bfs/new_dyn/3aaa9a97b14682cde6863eda78db03e3512995925.jpg"
    },
    {
        "name": "我心里危险的东西 第2期",
        "img": "https://i0.hdslb.com/bfs/new_dyn/25a7e1f6344e4148d853b4bbebf38d82512995925.jpg"
    },
    {
        "name": "指尖相触 恋恋不舍",
        "img": "https://i0.hdslb.com/bfs/new_dyn/283a35093a02e07c41f17b28b0226595512995925.jpg"
    },
    {
        "name": "北海道辣妹贼拉可爱",
        "img": "https://i0.hdslb.com/bfs/new_dyn/6a82b90828f63b240a9ebd8e64db6637512995925.jpg"
    },
    {
        "name": "愚蠢天使与恶魔共舞",
        "img": "https://i0.hdslb.com/bfs/new_dyn/2a147422afead02f1f937ac1b7eb689a512995925.jpg"
    },
    {
        "name": "魔都精兵的奴隶",
        "img": "https://i0.hdslb.com/bfs/new_dyn/86ee5a80486c753de2915a923a2210c6512995925.jpg"
    },
    {
        "name": "婚戒物语",
        "img": "https://i0.hdslb.com/bfs/new_dyn/f6b6819320976053e7e026418a85f454512995925.jpg"
    },
    {
        "name": "憧憬成为魔法少女",
        "img": "https://i0.hdslb.com/bfs/new_dyn/2d3bf78274c03508b5f99608c00cafe5512995925.jpg"
    },
    {
        "name": "公主大人 接下来是“拷问”时间",
        "img": "https://i0.hdslb.com/bfs/new_dyn/4f857807e332f41e55fd229be7369d17512995925.jpg"
    },
    {
        "name": "迷宫饭",
        "img": "https://i0.hdslb.com/bfs/new_dyn/8779ec97eb5269e05e155f5b303b849d512995925.jpg"
    },
    {
        "name": "战国妖狐",
        "img": "https://i0.hdslb.com/bfs/new_dyn/9670a947bae2088976a21e244361bfe2512995925.jpg"
    },
    {
        "name": "百千家的妖怪王子",
        "img": "https://i0.hdslb.com/bfs/new_dyn/810a972bd749ad6811a74db5fd8e68be512995925.jpg"
    },
    {
        "name": "魔女与野兽",
        "img": "https://i0.hdslb.com/bfs/new_dyn/2507b21a62d6d1fb4194afe430267aa9512995925.jpg"
    },
    {
        "name": "我独自升级",
        "img": "https://i0.hdslb.com/bfs/new_dyn/c76430badf78ce711a31723d7b46fb5d512995925.jpg"
    },
    {
        "name": "休假日的坏人先生",
        "img": "https://i0.hdslb.com/bfs/new_dyn/c872a31ea47f90318104df32e919ec7e512995925.jpg"
    },
    {
        "name": "到了30岁还是处男似乎会变成魔法师",
        "img": "https://i0.hdslb.com/bfs/new_dyn/86f0363bbf96c036fc083e693b7c9234512995925.jpg"
    },
    {
        "name": "Basue小酒馆",
        "img": "https://i0.hdslb.com/bfs/new_dyn/e99970e36f39f46786ef22cb4e182aa1512995925.jpg"
    },
    {
        "name": "贴纸小狗",
        "img": "https://i0.hdslb.com/bfs/new_dyn/99bae6d92b690c1834a5598335da561a512995925.jpg"
    },
    {
        "name": "狩火之王 第2期",
        "img": "https://i0.hdslb.com/bfs/new_dyn/8f8e93ff668566192fcde4c2ab5be8f5512995925.jpg"
    },
    {
        "name": "欢迎来到实力至上主义的教室 第3期",
        "img": "https://i0.hdslb.com/bfs/new_dyn/eb96c8e8c46929a38a3b674b0a4428f8512995925.jpg"
    },
    {
        "name": "弱势角色友崎君 第2期",
        "img": "https://i0.hdslb.com/bfs/new_dyn/c534f56e8c479f94b55aae6d5fcb1c27512995925.jpg"
    },
    {
        "name": "月光下的异世界之旅 第2期",
        "img": "https://i0.hdslb.com/bfs/new_dyn/b11ae0e5398f63d6f3d0be183a1b4b09512995925.jpg"
    },
    {
        "name": "因为不是真正的伙伴而被逐出勇者队伍流落到边境展开慢活人生 第2期",
        "img": "https://i0.hdslb.com/bfs/new_dyn/cbf1a6d89eb55aa56506a252282875d5512995925.jpg"
    },
    {
        "name": "佐佐木与文鸟小哔",
        "img": "https://i0.hdslb.com/bfs/new_dyn/1f494caf58587e0f00645cbf27faf238512995925.jpg"
    },
    {
        "name": "最弱驯魔师开始了捡垃圾之旅",
        "img": "https://i0.hdslb.com/bfs/new_dyn/b5b1be4c66d6db46a76f16635a89888b512995925.jpg"
    },
    {
        "name": "为了在异世界也能抚摸毛茸茸而努力",
        "img": "https://i0.hdslb.com/bfs/new_dyn/e970069f50b86ba74bad2e2ecfcf8cfe512995925.jpg"
    },
    {
        "name": "恶役千金Lv99",
        "img": "https://i0.hdslb.com/bfs/new_dyn/df3f56a9e9b2b71f76977f68f057349e512995925.jpg"
    },
    {
        "name": "轮回七次的反派大小姐在前敌国享受随心所欲的新婚生活",
        "img": "https://i0.hdslb.com/bfs/new_dyn/f49d15a1ad9e2106b0cfa55bfb2478af512995925.jpg"
    },
    {
        "name": "治愈魔法的错误用法",
        "img": "https://i0.hdslb.com/bfs/new_dyn/8dc9d7a85ccd5a58e38486a7614844db512995925.jpg"
    },
    {
        "name": "最强肉盾的迷宫攻略",
        "img": "https://i0.hdslb.com/bfs/new_dyn/7562a45a48299106c59dfa513cb2a78c512995925.jpg"
    },
    {
        "name": "秒杀外挂太强了异世界的家伙们根本就不是对手",
        "img": "https://i0.hdslb.com/bfs/new_dyn/dc121df9467d8cd62a3720f5852d49b3512995925.jpg"
    },
    {
        "name": "事与愿违的不死冒险者",
        "img": "https://i0.hdslb.com/bfs/new_dyn/b66c1a9a1eeeb8ba2e8b62cda606e746512995925.jpg"
    },
    {
        "name": "异修罗",
        "img": "https://i0.hdslb.com/bfs/new_dyn/9d68f25cbf1c3d3184eb79b54041ff77512995925.jpg"
    },
    {
        "name": "女王的手术刀",
        "img": "https://i0.hdslb.com/bfs/new_dyn/4b0a67fc0b965f076eed15e1fac30583512995925.jpg"
    },
    {
        "name": "异世界温泉开拓记",
        "img": "https://i0.hdslb.com/bfs/new_dyn/6c0fd7b3003dd7dd5d5b5d963d6ef5d0512995925.jpg"
    },
    {
        "name": "奇异贤伴 黑色天使 Part.2",
        "img": "https://i0.hdslb.com/bfs/new_dyn/a199c1033782cbe9810e8c4605f44a55512995925.jpg"
    },
    {
        "name": "暗芝居 第12期",
        "img": "https://i0.hdslb.com/bfs/new_dyn/b75016d363661b3be4982bdfcb400c03512995925.jpg"
    },
    {
        "name": "加密忍者咲耶 第2期",
        "img": "https://i0.hdslb.com/bfs/new_dyn/0dc961b34a99aeda4c385c7716f5248d512995925.jpg"
    }
]